%YAML 1.1
%TAG !u! tag:unity3d.com,2011:
--- !u!114 &11400000
MonoBehaviour:
  m_ObjectHideFlags: 0
  m_CorrespondingSourceObject: {fileID: 0}
  m_PrefabInternal: {fileID: 0}
  m_GameObject: {fileID: 0}
  m_Enabled: 1
  m_EditorHideFlags: 0
  m_Script: {fileID: 11500000, guid: d7fd9488000d3734a9e00ee676215985, type: 3}
  m_Name: Scene Settings Profile
  m_EditorClassIdentifier: 
  components:
  - {fileID: 114467956909113970}
  - {fileID: 114885864273556430}
  - {fileID: 114964911858117874}
  - {fileID: 114669309318753380}
  - {fileID: 114262590709848584}
--- !u!114 &114262590709848584
MonoBehaviour:
  m_ObjectHideFlags: 3
  m_CorrespondingSourceObject: {fileID: 0}
  m_PrefabInternal: {fileID: 0}
  m_GameObject: {fileID: 0}
  m_Enabled: 1
  m_EditorHideFlags: 0
  m_Script: {fileID: 11500000, guid: 4910d90e50201484ba448b791a192696, type: 3}
  m_Name: VolumetricLightingController
  m_EditorClassIdentifier: 
  active: 1
  depthRange:
    m_OverrideState: 1
    m_Value: {x: 2, y: 82.21469}
    min: 0.01
    max: 10000
  depthDistributionUniformity:
    m_OverrideState: 0
    m_Value: 0.75
    min: 0
    max: 1
--- !u!114 &114467956909113970
MonoBehaviour:
  m_ObjectHideFlags: 0
  m_CorrespondingSourceObject: {fileID: 0}
  m_PrefabInternal: {fileID: 0}
  m_GameObject: {fileID: 0}
  m_Enabled: 1
  m_EditorHideFlags: 0
  m_Script: {fileID: 11500000, guid: 7ddcec8a8eb2d684d833ac8f5d26aebd, type: 3}
  m_Name: 
  m_EditorClassIdentifier: 
  active: 1
  maxShadowDistance:
    m_OverrideState: 1
    m_Value: 500
    min: 0
  cascadeShadowSplitCount:
    m_OverrideState: 1
    m_Value: 4
    min: 1
    max: 4
  cascadeShadowSplit0:
    m_OverrideState: 1
    m_Value: 0.05
    min: 0
    max: 1
  cascadeShadowSplit1:
    m_OverrideState: 1
    m_Value: 0.15
    min: 0
    max: 1
  cascadeShadowSplit2:
    m_OverrideState: 1
    m_Value: 0.3
    min: 0
    max: 1
  cascadeShadowBorder0:
    m_OverrideState: 1
    m_Value: 0
    min: 0
  cascadeShadowBorder1:
    m_OverrideState: 1
    m_Value: 0
    min: 0
  cascadeShadowBorder2:
    m_OverrideState: 1
    m_Value: 0
    min: 0
  cascadeShadowBorder3:
    m_OverrideState: 1
    m_Value: 0
    min: 0
--- !u!114 &114669309318753380
MonoBehaviour:
  m_ObjectHideFlags: 3
  m_CorrespondingSourceObject: {fileID: 0}
  m_PrefabInternal: {fileID: 0}
  m_GameObject: {fileID: 0}
  m_Enabled: 1
  m_EditorHideFlags: 0
  m_Script: {fileID: 11500000, guid: 384c4d03a551c44448145f4093304119, type: 3}
  m_Name: ScreenSpaceReflection
  m_EditorClassIdentifier: 
  active: 1
  rayLevel:
    m_OverrideState: 1
    m_Value: 2
  rayMinLevel:
    m_OverrideState: 1
    m_Value: 2
  rayMaxLevel:
    m_OverrideState: 1
    m_Value: 6
  rayMaxIterations:
    m_OverrideState: 1
    m_Value: 32
  depthBufferThickness:
    m_OverrideState: 1
    m_Value: 1
  screenWeightDistance:
    m_OverrideState: 1
    m_Value: 0.1
    min: 0
    max: 1
  rayMaxScreenDistance:
    m_OverrideState: 1
    m_Value: 0.3
    min: 0
    max: 1
  rayBlendScreenDistance:
    m_OverrideState: 1
    m_Value: 0.1
    min: 0
    max: 1
  rayMarchBehindObjects:
    m_OverrideState: 1
    m_Value: 1
  deferredProjectionModel:
    m_OverrideState: 1
    m_Value: 1
--- !u!114 &114885864273556430
MonoBehaviour:
  m_ObjectHideFlags: 0
  m_CorrespondingSourceObject: {fileID: 0}
  m_PrefabInternal: {fileID: 0}
  m_GameObject: {fileID: 0}
  m_Enabled: 1
  m_EditorHideFlags: 0
  m_Script: {fileID: 11500000, guid: 0d7593b3a9277ac4696b20006c21dde2, type: 3}
  m_Name: 
  m_EditorClassIdentifier: 
  active: 1
  skyType:
    m_OverrideState: 1
    m_Value: 0
  fogType:
    m_OverrideState: 1
    m_Value: 3
--- !u!114 &114964911858117874
MonoBehaviour:
  m_ObjectHideFlags: 3
  m_CorrespondingSourceObject: {fileID: 0}
  m_PrefabInternal: {fileID: 0}
  m_GameObject: {fileID: 0}
  m_Enabled: 1
  m_EditorHideFlags: 0
  m_Script: {fileID: 11500000, guid: 29b00527f85bb3346a4d2cb710971587, type: 3}
  m_Name: VolumetricFog
  m_EditorClassIdentifier: 
  active: 1
  colorMode:
    m_OverrideState: 1
    m_Value: 1
  color:
    m_OverrideState: 1
    m_Value: {r: 0.5, g: 0.5, b: 0.5, a: 1}
    hdr: 0
    showAlpha: 1
    showEyeDropper: 1
  density:
    m_OverrideState: 1
    m_Value: 1
    min: 0
    max: 1
  mipFogMaxMip:
    m_OverrideState: 1
    m_Value: 0.5
    min: 0
    max: 1
  mipFogNear:
    m_OverrideState: 1
    m_Value: 0
    min: 0
  mipFogFar:
    m_OverrideState: 1
    m_Value: 1000
    min: 0
  albedo:
    m_OverrideState: 1
    m_Value: {r: 0.7122642, g: 1, b: 0.9521312, a: 1}
    hdr: 0
    showAlpha: 1
    showEyeDropper: 1
  meanFreePath:
    m_OverrideState: 1
    m_Value: 30
    min: 1
  anisotropy:
    m_OverrideState: 1
    m_Value: 0
    min: -1
    max: 1
  globalLightProbeDimmer:
    m_OverrideState: 0
    m_Value: 1
    min: 0
    max: 1
