%YAML 1.1
%TAG !u! tag:unity3d.com,2011:
--- !u!114 &11400000
MonoBehaviour:
  m_ObjectHideFlags: 0
  m_CorrespondingSourceObject: {fileID: 0}
  m_PrefabInternal: {fileID: 0}
  m_GameObject: {fileID: 0}
  m_Enabled: 1
  m_EditorHideFlags: 0
  m_Script: {fileID: 11500000, guid: 941fd4c4ee0f7364d94b9db9bc48af57, type: 3}
  m_Name: Y-7
  m_EditorClassIdentifier: 
  state:
    Name: Down
    Position: {x: 0, y: -7, z: 0}
