%YAML 1.1
%TAG !u! tag:unity3d.com,2011:
--- !u!1001 &100100000
Prefab:
  m_ObjectHideFlags: 1
  serializedVersion: 2
  m_Modification:
    m_TransformParent: {fileID: 0}
    m_Modifications: []
    m_RemovedComponents: []
  m_SourcePrefab: {fileID: 0}
  m_RootGameObject: {fileID: 1452218908364000}
  m_IsPrefabAsset: 1
--- !u!1 &1452218908364000
GameObject:
  m_ObjectHideFlags: 0
  m_CorrespondingSourceObject: {fileID: 0}
  m_PrefabInternal: {fileID: 100100000}
  serializedVersion: 6
  m_Component:
  - component: {fileID: 4084538734450146}
  - component: {fileID: 33003011647088814}
  - component: {fileID: 114930616941921148}
  - component: {fileID: 23287678999634120}
  - component: {fileID: 114370497628499916}
  - component: {fileID: 64344658271805716}
  m_Layer: 0
  m_Name: Icosphere
  m_TagString: Untagged
  m_Icon: {fileID: 0}
  m_NavMeshLayer: 0
  m_StaticEditorFlags: 127
  m_IsActive: 1
--- !u!4 &4084538734450146
Transform:
  m_ObjectHideFlags: 1
  m_CorrespondingSourceObject: {fileID: 0}
  m_PrefabInternal: {fileID: 100100000}
  m_GameObject: {fileID: 1452218908364000}
  m_LocalRotation: {x: 0, y: 0, z: 0, w: 1}
  m_LocalPosition: {x: 0, y: 0, z: 0}
  m_LocalScale: {x: 1, y: 1, z: 1}
  m_Children: []
  m_Father: {fileID: 0}
  m_RootOrder: 0
  m_LocalEulerAnglesHint: {x: 0, y: 0, z: 0}
--- !u!23 &23287678999634120
MeshRenderer:
  m_ObjectHideFlags: 1
  m_CorrespondingSourceObject: {fileID: 0}
  m_PrefabInternal: {fileID: 100100000}
  m_GameObject: {fileID: 1452218908364000}
  m_Enabled: 1
  m_CastShadows: 2
  m_ReceiveShadows: 1
  m_DynamicOccludee: 1
  m_MotionVectors: 1
  m_LightProbeUsage: 1
  m_ReflectionProbeUsage: 1
  m_RenderingLayerMask: 4294967295
  m_Materials:
  - {fileID: 2100000, guid: 55296d1b6ee54e14e8eb4648d4b448ee, type: 2}
  m_StaticBatchInfo:
    firstSubMesh: 0
    subMeshCount: 0
  m_StaticBatchRoot: {fileID: 0}
  m_ProbeAnchor: {fileID: 0}
  m_LightProbeVolumeOverride: {fileID: 0}
  m_ScaleInLightmap: 1
  m_PreserveUVs: 0
  m_IgnoreNormalsForChartDetection: 0
  m_ImportantGI: 0
  m_StitchLightmapSeams: 0
  m_SelectedEditorRenderState: 0
  m_MinimumChartSize: 4
  m_AutoUVMaxDistance: 0.5
  m_AutoUVMaxAngle: 89
  m_LightmapParameters: {fileID: 0}
  m_SortingLayerID: 0
  m_SortingLayer: 0
  m_SortingOrder: 0
--- !u!33 &33003011647088814
MeshFilter:
  m_ObjectHideFlags: 1
  m_CorrespondingSourceObject: {fileID: 0}
  m_PrefabInternal: {fileID: 100100000}
  m_GameObject: {fileID: 1452218908364000}
  m_Mesh: {fileID: 0}
--- !u!64 &64344658271805716
MeshCollider:
  m_ObjectHideFlags: 1
  m_CorrespondingSourceObject: {fileID: 0}
  m_PrefabInternal: {fileID: 100100000}
  m_GameObject: {fileID: 1452218908364000}
  m_Material: {fileID: 0}
  m_IsTrigger: 0
  m_Enabled: 1
  serializedVersion: 3
  m_Convex: 0
  m_CookingOptions: 14
  m_SkinWidth: 0.01
  m_Mesh: {fileID: 0}
--- !u!114 &114370497628499916
MonoBehaviour:
  m_ObjectHideFlags: 1
  m_CorrespondingSourceObject: {fileID: 0}
  m_PrefabInternal: {fileID: 100100000}
  m_GameObject: {fileID: 1452218908364000}
  m_Enabled: 1
  m_EditorHideFlags: 0
  m_Script: {fileID: 185759285, guid: 0472bdc8d6d15384d98f22ee34302f9c, type: 3}
  m_Name: 
  m_EditorClassIdentifier: 
  _quads:
  - _indices: 000000000100000002000000
    _distinctIndices: 000000000100000002000000
    _edges:
    - x: 0
      y: 1
    - x: 1
      y: 2
    - x: 2
      y: 0
    _smoothingGroup: 0
    _uv:
      useWorldSpace: 0
      flipU: 0
      flipV: 0
      swapUV: 0
      fill: 1
      scale: {x: 1, y: 1}
      offset: {x: 0, y: 0}
      rotation: 0
      justify: 0
      localPivot: {x: 0, y: 0}
      localSize: {x: 0, y: 0}
      anchor: 9
    _mat: {fileID: 2100000, guid: 55296d1b6ee54e14e8eb4648d4b448ee, type: 2}
    manualUV: 1
    elementGroup: -1
    textureGroup: -1
  - _indices: 030000000400000005000000
    _distinctIndices: 030000000400000005000000
    _edges:
    - x: 3
      y: 4
    - x: 4
      y: 5
    - x: 5
      y: 3
    _smoothingGroup: 0
    _uv:
      useWorldSpace: 0
      flipU: 0
      flipV: 0
      swapUV: 0
      fill: 1
      scale: {x: 1, y: 1}
      offset: {x: 0, y: 0}
      rotation: 0
      justify: 0
      localPivot: {x: 0, y: 0}
      localSize: {x: 0, y: 0}
      anchor: 9
    _mat: {fileID: 2100000, guid: 55296d1b6ee54e14e8eb4648d4b448ee, type: 2}
    manualUV: 1
    elementGroup: -1
    textureGroup: -1
  - _indices: 060000000700000008000000
    _distinctIndices: 060000000700000008000000
    _edges:
    - x: 6
      y: 7
    - x: 7
      y: 8
    - x: 8
      y: 6
    _smoothingGroup: 0
    _uv:
      useWorldSpace: 0
      flipU: 0
      flipV: 0
      swapUV: 0
      fill: 1
      scale: {x: 1, y: 1}
      offset: {x: 0, y: 0}
      rotation: 0
      justify: 0
      localPivot: {x: 0, y: 0}
      localSize: {x: 0, y: 0}
      anchor: 9
    _mat: {fileID: 2100000, guid: 55296d1b6ee54e14e8eb4648d4b448ee, type: 2}
    manualUV: 1
    elementGroup: -1
    textureGroup: -1
  - _indices: 090000000a0000000b000000
    _distinctIndices: 090000000a0000000b000000
    _edges:
    - x: 9
      y: 10
    - x: 10
      y: 11
    - x: 11
      y: 9
    _smoothingGroup: 0
    _uv:
      useWorldSpace: 0
      flipU: 0
      flipV: 0
      swapUV: 0
      fill: 1
      scale: {x: 1, y: 1}
      offset: {x: 0, y: 0}
      rotation: 0
      justify: 0
      localPivot: {x: 0, y: 0}
      localSize: {x: 0, y: 0}
      anchor: 9
    _mat: {fileID: 2100000, guid: 55296d1b6ee54e14e8eb4648d4b448ee, type: 2}
    manualUV: 1
    elementGroup: -1
    textureGroup: -1
  - _indices: 0c0000000d0000000e000000
    _distinctIndices: 0c0000000d0000000e000000
    _edges:
    - x: 12
      y: 13
    - x: 13
      y: 14
    - x: 14
      y: 12
    _smoothingGroup: 0
    _uv:
      useWorldSpace: 0
      flipU: 0
      flipV: 0
      swapUV: 0
      fill: 1
      scale: {x: 1, y: 1}
      offset: {x: 0, y: 0}
      rotation: 0
      justify: 0
      localPivot: {x: 0, y: 0}
      localSize: {x: 0, y: 0}
      anchor: 9
    _mat: {fileID: 2100000, guid: 55296d1b6ee54e14e8eb4648d4b448ee, type: 2}
    manualUV: 1
    elementGroup: -1
    textureGroup: -1
  - _indices: 0f0000001000000011000000
    _distinctIndices: 0f0000001000000011000000
    _edges:
    - x: 15
      y: 16
    - x: 16
      y: 17
    - x: 17
      y: 15
    _smoothingGroup: 0
    _uv:
      useWorldSpace: 0
      flipU: 0
      flipV: 0
      swapUV: 0
      fill: 1
      scale: {x: 1, y: 1}
      offset: {x: 0, y: 0}
      rotation: 0
      justify: 0
      localPivot: {x: 0, y: 0}
      localSize: {x: 0, y: 0}
      anchor: 9
    _mat: {fileID: 2100000, guid: 55296d1b6ee54e14e8eb4648d4b448ee, type: 2}
    manualUV: 1
    elementGroup: -1
    textureGroup: -1
  - _indices: 120000001300000014000000
    _distinctIndices: 120000001300000014000000
    _edges:
    - x: 18
      y: 19
    - x: 19
      y: 20
    - x: 20
      y: 18
    _smoothingGroup: 0
    _uv:
      useWorldSpace: 0
      flipU: 0
      flipV: 0
      swapUV: 0
      fill: 1
      scale: {x: 1, y: 1}
      offset: {x: 0, y: 0}
      rotation: 0
      justify: 0
      localPivot: {x: 0, y: 0}
      localSize: {x: 0, y: 0}
      anchor: 9
    _mat: {fileID: 2100000, guid: 55296d1b6ee54e14e8eb4648d4b448ee, type: 2}
    manualUV: 1
    elementGroup: -1
    textureGroup: -1
  - _indices: 150000001600000017000000
    _distinctIndices: 150000001600000017000000
    _edges:
    - x: 21
      y: 22
    - x: 22
      y: 23
    - x: 23
      y: 21
    _smoothingGroup: 0
    _uv:
      useWorldSpace: 0
      flipU: 0
      flipV: 0
      swapUV: 0
      fill: 1
      scale: {x: 1, y: 1}
      offset: {x: 0, y: 0}
      rotation: 0
      justify: 0
      localPivot: {x: 0, y: 0}
      localSize: {x: 0, y: 0}
      anchor: 9
    _mat: {fileID: 2100000, guid: 55296d1b6ee54e14e8eb4648d4b448ee, type: 2}
    manualUV: 1
    elementGroup: -1
    textureGroup: -1
  - _indices: 18000000190000001a000000
    _distinctIndices: 18000000190000001a000000
    _edges:
    - x: 24
      y: 25
    - x: 25
      y: 26
    - x: 26
      y: 24
    _smoothingGroup: 0
    _uv:
      useWorldSpace: 0
      flipU: 0
      flipV: 0
      swapUV: 0
      fill: 1
      scale: {x: 1, y: 1}
      offset: {x: 0, y: 0}
      rotation: 0
      justify: 0
      localPivot: {x: 0, y: 0}
      localSize: {x: 0, y: 0}
      anchor: 9
    _mat: {fileID: 2100000, guid: 55296d1b6ee54e14e8eb4648d4b448ee, type: 2}
    manualUV: 1
    elementGroup: -1
    textureGroup: -1
  - _indices: 1b0000001c0000001d000000
    _distinctIndices: 1b0000001c0000001d000000
    _edges:
    - x: 27
      y: 28
    - x: 28
      y: 29
    - x: 29
      y: 27
    _smoothingGroup: 0
    _uv:
      useWorldSpace: 0
      flipU: 0
      flipV: 0
      swapUV: 0
      fill: 1
      scale: {x: 1, y: 1}
      offset: {x: 0, y: 0}
      rotation: 0
      justify: 0
      localPivot: {x: 0, y: 0}
      localSize: {x: 0, y: 0}
      anchor: 9
    _mat: {fileID: 2100000, guid: 55296d1b6ee54e14e8eb4648d4b448ee, type: 2}
    manualUV: 1
    elementGroup: -1
    textureGroup: -1
  - _indices: 1e0000001f00000020000000
    _distinctIndices: 1e0000001f00000020000000
    _edges:
    - x: 30
      y: 31
    - x: 31
      y: 32
    - x: 32
      y: 30
    _smoothingGroup: 0
    _uv:
      useWorldSpace: 0
      flipU: 0
      flipV: 0
      swapUV: 0
      fill: 1
      scale: {x: 1, y: 1}
      offset: {x: 0, y: 0}
      rotation: 0
      justify: 0
      localPivot: {x: 0, y: 0}
      localSize: {x: 0, y: 0}
      anchor: 9
    _mat: {fileID: 2100000, guid: 55296d1b6ee54e14e8eb4648d4b448ee, type: 2}
    manualUV: 1
    elementGroup: -1
    textureGroup: -1
  - _indices: 210000002200000023000000
    _distinctIndices: 210000002200000023000000
    _edges:
    - x: 33
      y: 34
    - x: 34
      y: 35
    - x: 35
      y: 33
    _smoothingGroup: 0
    _uv:
      useWorldSpace: 0
      flipU: 0
      flipV: 0
      swapUV: 0
      fill: 1
      scale: {x: 1, y: 1}
      offset: {x: 0, y: 0}
      rotation: 0
      justify: 0
      localPivot: {x: 0, y: 0}
      localSize: {x: 0, y: 0}
      anchor: 9
    _mat: {fileID: 2100000, guid: 55296d1b6ee54e14e8eb4648d4b448ee, type: 2}
    manualUV: 1
    elementGroup: -1
    textureGroup: -1
  - _indices: 240000002500000026000000
    _distinctIndices: 240000002500000026000000
    _edges:
    - x: 36
      y: 37
    - x: 37
      y: 38
    - x: 38
      y: 36
    _smoothingGroup: 0
    _uv:
      useWorldSpace: 0
      flipU: 0
      flipV: 0
      swapUV: 0
      fill: 1
      scale: {x: 1, y: 1}
      offset: {x: 0, y: 0}
      rotation: 0
      justify: 0
      localPivot: {x: 0, y: 0}
      localSize: {x: 0, y: 0}
      anchor: 9
    _mat: {fileID: 2100000, guid: 55296d1b6ee54e14e8eb4648d4b448ee, type: 2}
    manualUV: 1
    elementGroup: -1
    textureGroup: -1
  - _indices: 270000002800000029000000
    _distinctIndices: 270000002800000029000000
    _edges:
    - x: 39
      y: 40
    - x: 40
      y: 41
    - x: 41
      y: 39
    _smoothingGroup: 0
    _uv:
      useWorldSpace: 0
      flipU: 0
      flipV: 0
      swapUV: 0
      fill: 1
      scale: {x: 1, y: 1}
      offset: {x: 0, y: 0}
      rotation: 0
      justify: 0
      localPivot: {x: 0, y: 0}
      localSize: {x: 0, y: 0}
      anchor: 9
    _mat: {fileID: 2100000, guid: 55296d1b6ee54e14e8eb4648d4b448ee, type: 2}
    manualUV: 1
    elementGroup: -1
    textureGroup: -1
  - _indices: 2a0000002b0000002c000000
    _distinctIndices: 2a0000002b0000002c000000
    _edges:
    - x: 42
      y: 43
    - x: 43
      y: 44
    - x: 44
      y: 42
    _smoothingGroup: 0
    _uv:
      useWorldSpace: 0
      flipU: 0
      flipV: 0
      swapUV: 0
      fill: 1
      scale: {x: 1, y: 1}
      offset: {x: 0, y: 0}
      rotation: 0
      justify: 0
      localPivot: {x: 0, y: 0}
      localSize: {x: 0, y: 0}
      anchor: 9
    _mat: {fileID: 2100000, guid: 55296d1b6ee54e14e8eb4648d4b448ee, type: 2}
    manualUV: 1
    elementGroup: -1
    textureGroup: -1
  - _indices: 2d0000002e0000002f000000
    _distinctIndices: 2d0000002e0000002f000000
    _edges:
    - x: 45
      y: 46
    - x: 46
      y: 47
    - x: 47
      y: 45
    _smoothingGroup: 0
    _uv:
      useWorldSpace: 0
      flipU: 0
      flipV: 0
      swapUV: 0
      fill: 1
      scale: {x: 1, y: 1}
      offset: {x: 0, y: 0}
      rotation: 0
      justify: 0
      localPivot: {x: 0, y: 0}
      localSize: {x: 0, y: 0}
      anchor: 9
    _mat: {fileID: 2100000, guid: 55296d1b6ee54e14e8eb4648d4b448ee, type: 2}
    manualUV: 1
    elementGroup: -1
    textureGroup: -1
  - _indices: 300000003100000032000000
    _distinctIndices: 300000003100000032000000
    _edges:
    - x: 48
      y: 49
    - x: 49
      y: 50
    - x: 50
      y: 48
    _smoothingGroup: 0
    _uv:
      useWorldSpace: 0
      flipU: 0
      flipV: 0
      swapUV: 0
      fill: 1
      scale: {x: 1, y: 1}
      offset: {x: 0, y: 0}
      rotation: 0
      justify: 0
      localPivot: {x: 0, y: 0}
      localSize: {x: 0, y: 0}
      anchor: 9
    _mat: {fileID: 2100000, guid: 55296d1b6ee54e14e8eb4648d4b448ee, type: 2}
    manualUV: 1
    elementGroup: -1
    textureGroup: -1
  - _indices: 330000003400000035000000
    _distinctIndices: 330000003400000035000000
    _edges:
    - x: 51
      y: 52
    - x: 52
      y: 53
    - x: 53
      y: 51
    _smoothingGroup: 0
    _uv:
      useWorldSpace: 0
      flipU: 0
      flipV: 0
      swapUV: 0
      fill: 1
      scale: {x: 1, y: 1}
      offset: {x: 0, y: 0}
      rotation: 0
      justify: 0
      localPivot: {x: 0, y: 0}
      localSize: {x: 0, y: 0}
      anchor: 9
    _mat: {fileID: 2100000, guid: 55296d1b6ee54e14e8eb4648d4b448ee, type: 2}
    manualUV: 1
    elementGroup: -1
    textureGroup: -1
  - _indices: 360000003700000038000000
    _distinctIndices: 360000003700000038000000
    _edges:
    - x: 54
      y: 55
    - x: 55
      y: 56
    - x: 56
      y: 54
    _smoothingGroup: 0
    _uv:
      useWorldSpace: 0
      flipU: 0
      flipV: 0
      swapUV: 0
      fill: 1
      scale: {x: 1, y: 1}
      offset: {x: 0, y: 0}
      rotation: 0
      justify: 0
      localPivot: {x: 0, y: 0}
      localSize: {x: 0, y: 0}
      anchor: 9
    _mat: {fileID: 2100000, guid: 55296d1b6ee54e14e8eb4648d4b448ee, type: 2}
    manualUV: 1
    elementGroup: -1
    textureGroup: -1
  - _indices: 390000003a0000003b000000
    _distinctIndices: 390000003a0000003b000000
    _edges:
    - x: 57
      y: 58
    - x: 58
      y: 59
    - x: 59
      y: 57
    _smoothingGroup: 0
    _uv:
      useWorldSpace: 0
      flipU: 0
      flipV: 0
      swapUV: 0
      fill: 1
      scale: {x: 1, y: 1}
      offset: {x: 0, y: 0}
      rotation: 0
      justify: 0
      localPivot: {x: 0, y: 0}
      localSize: {x: 0, y: 0}
      anchor: 9
    _mat: {fileID: 2100000, guid: 55296d1b6ee54e14e8eb4648d4b448ee, type: 2}
    manualUV: 1
    elementGroup: -1
    textureGroup: -1
  _sharedIndices:
  - array: 000000000300000006000000090000000c000000
  - array: 010000000e000000130000001500000032000000
  - array: 020000000400000010000000120000002f000000
  - array: 05000000070000000f0000001c0000003b000000
  - array: 080000000a000000190000001b00000038000000
  - array: 0b0000000d000000160000001800000035000000
  - array: 110000001f0000002c0000002e00000039000000
  - array: 1400000020000000220000002d00000031000000
  - array: 1700000023000000250000003000000034000000
  - array: 1a00000026000000280000003300000037000000
  - array: 1d000000290000002b000000360000003a000000
  - array: 1e0000002100000024000000270000002a000000
  _vertices:
  - {x: 0, y: 0, z: 0}
  - {x: -0.06498395, y: -0.17013016, z: 0.105146214}
  - {x: 0.105146214, y: -0.06498395, z: 0.17013016}
  - {x: 0, y: 0, z: 0}
  - {x: 0.105146214, y: -0.06498395, z: 0.17013016}
  - {x: 0.21029243, y: 0, z: 0}
  - {x: 0, y: 0, z: 0}
  - {x: 0.21029243, y: 0, z: 0}
  - {x: 0.105146214, y: -0.06498395, z: -0.17013016}
  - {x: 0, y: 0, z: 0}
  - {x: 0.105146214, y: -0.06498395, z: -0.17013016}
  - {x: -0.06498395, y: -0.17013016, z: -0.105146214}
  - {x: 0, y: 0, z: 0}
  - {x: -0.06498395, y: -0.17013016, z: -0.105146214}
  - {x: -0.06498395, y: -0.17013016, z: 0.105146214}
  - {x: 0.21029243, y: 0, z: 0}
  - {x: 0.105146214, y: -0.06498395, z: 0.17013016}
  - {x: 0.27527636, y: -0.17013016, z: 0.105146214}
  - {x: 0.105146214, y: -0.06498395, z: 0.17013016}
  - {x: -0.06498395, y: -0.17013016, z: 0.105146214}
  - {x: 0.105146214, y: -0.27527636, z: 0.17013016}
  - {x: -0.06498395, y: -0.17013016, z: 0.105146214}
  - {x: -0.06498395, y: -0.17013016, z: -0.105146214}
  - {x: 0, y: -0.34026033, z: 0}
  - {x: -0.06498395, y: -0.17013016, z: -0.105146214}
  - {x: 0.105146214, y: -0.06498395, z: -0.17013016}
  - {x: 0.105146214, y: -0.27527636, z: -0.17013016}
  - {x: 0.105146214, y: -0.06498395, z: -0.17013016}
  - {x: 0.21029243, y: 0, z: 0}
  - {x: 0.27527636, y: -0.17013016, z: -0.105146214}
  - {x: 0.21029243, y: -0.34026033, z: 0}
  - {x: 0.27527636, y: -0.17013016, z: 0.105146214}
  - {x: 0.105146214, y: -0.27527636, z: 0.17013016}
  - {x: 0.21029243, y: -0.34026033, z: 0}
  - {x: 0.105146214, y: -0.27527636, z: 0.17013016}
  - {x: 0, y: -0.34026033, z: 0}
  - {x: 0.21029243, y: -0.34026033, z: 0}
  - {x: 0, y: -0.34026033, z: 0}
  - {x: 0.105146214, y: -0.27527636, z: -0.17013016}
  - {x: 0.21029243, y: -0.34026033, z: 0}
  - {x: 0.105146214, y: -0.27527636, z: -0.17013016}
  - {x: 0.27527636, y: -0.17013016, z: -0.105146214}
  - {x: 0.21029243, y: -0.34026033, z: 0}
  - {x: 0.27527636, y: -0.17013016, z: -0.105146214}
  - {x: 0.27527636, y: -0.17013016, z: 0.105146214}
  - {x: 0.105146214, y: -0.27527636, z: 0.17013016}
  - {x: 0.27527636, y: -0.17013016, z: 0.105146214}
  - {x: 0.105146214, y: -0.06498395, z: 0.17013016}
  - {x: 0, y: -0.34026033, z: 0}
  - {x: 0.105146214, y: -0.27527636, z: 0.17013016}
  - {x: -0.06498395, y: -0.17013016, z: 0.105146214}
  - {x: 0.105146214, y: -0.27527636, z: -0.17013016}
  - {x: 0, y: -0.34026033, z: 0}
  - {x: -0.06498395, y: -0.17013016, z: -0.105146214}
  - {x: 0.27527636, y: -0.17013016, z: -0.105146214}
  - {x: 0.105146214, y: -0.27527636, z: -0.17013016}
  - {x: 0.105146214, y: -0.06498395, z: -0.17013016}
  - {x: 0.27527636, y: -0.17013016, z: 0.105146214}
  - {x: 0.27527636, y: -0.17013016, z: -0.105146214}
  - {x: 0.21029243, y: 0, z: 0}
  _uv:
  - {x: 0.105146214, y: 0.17013016}
  - {x: 0.17013016, y: 0}
  - {x: 0, y: 0.105146214}
  - {x: -0.105146214, y: 0}
  - {x: 0, y: 0.17013016}
  - {x: 0.105146214, y: 0}
  - {x: -0.105146214, y: 0}
  - {x: 0.105146214, y: 0}
  - {x: 0, y: -0.17013016}
  - {x: -0.105146214, y: 0.17013016}
  - {x: 0, y: 0.105146214}
  - {x: -0.17013016, y: 0}
  - {x: 0, y: 0.17013016}
  - {x: 0.105146214, y: 0}
  - {x: -0.105146214, y: 0}
  - {x: -0.105146214, y: 0.17013016}
  - {x: 0, y: 0.105146214}
  - {x: -0.17013016, y: 0}
  - {x: 0, y: 0.105146214}
  - {x: 0.17013016, y: 0}
  - {x: 0, y: -0.105146214}
  - {x: -0.105146214, y: 0}
  - {x: 0.105146214, y: 0}
  - {x: -0, y: -0.17013016}
  - {x: -0.17013016, y: 0}
  - {x: 0, y: 0.105146214}
  - {x: 0, y: -0.105146214}
  - {x: 0, y: 0.105146214}
  - {x: 0.105146214, y: 0.17013016}
  - {x: 0.17013016, y: 0}
  - {x: -0.105146214, y: -0.17013016}
  - {x: -0.17013016, y: 0}
  - {x: 0, y: -0.105146214}
  - {x: -0.105146214, y: 0}
  - {x: 0, y: 0.17013016}
  - {x: 0.105146214, y: 0}
  - {x: -0.105146214, y: 0}
  - {x: 0.105146214, y: 0}
  - {x: -0, y: -0.17013016}
  - {x: 0.105146214, y: -0.17013016}
  - {x: 0, y: -0.105146214}
  - {x: 0.17013016, y: 0}
  - {x: 0, y: -0.17013016}
  - {x: -0.105146214, y: 0}
  - {x: 0.105146214, y: 0}
  - {x: 0, y: -0.105146214}
  - {x: -0.17013016, y: 0}
  - {x: 0, y: 0.105146214}
  - {x: 0.105146214, y: -0.17013016}
  - {x: 0, y: -0.105146214}
  - {x: 0.17013016, y: 0}
  - {x: 0, y: -0.105146214}
  - {x: -0.105146214, y: -0.17013016}
  - {x: -0.17013016, y: 0}
  - {x: 0.17013016, y: 0}
  - {x: 0, y: -0.105146214}
  - {x: 0, y: 0.105146214}
  - {x: 0.105146214, y: 0}
  - {x: -0.105146214, y: 0}
  - {x: 0, y: 0.17013016}
  _uv3:
  - {x: 0, y: 0, z: 0, w: 0}
  - {x: 0, y: 0, z: 0, w: 0}
  - {x: 0, y: 0, z: 0, w: 0}
  - {x: 0, y: 0, z: 0, w: 0}
  - {x: 0, y: 0, z: 0, w: 0}
  - {x: 0, y: 0, z: 0, w: 0}
  - {x: 0, y: 0, z: 0, w: 0}
  - {x: 0, y: 0, z: 0, w: 0}
  - {x: 0, y: 0, z: 0, w: 0}
  - {x: 0, y: 0, z: 0, w: 0}
  - {x: 0, y: 0, z: 0, w: 0}
  - {x: 0, y: 0, z: 0, w: 0}
  - {x: 0, y: 0, z: 0, w: 0}
  - {x: 0, y: 0, z: 0, w: 0}
  - {x: 0, y: 0, z: 0, w: 0}
  - {x: 0, y: 0, z: 0, w: 0}
  - {x: 0, y: 0, z: 0, w: 0}
  - {x: 0, y: 0, z: 0, w: 0}
  - {x: 0, y: 0, z: 0, w: 0}
  - {x: 0, y: 0, z: 0, w: 0}
  - {x: 0, y: 0, z: 0, w: 0}
  - {x: 0, y: 0, z: 0, w: 0}
  - {x: 0, y: 0, z: 0, w: 0}
  - {x: 0, y: 0, z: 0, w: 0}
  - {x: 0, y: 0, z: 0, w: 0}
  - {x: 0, y: 0, z: 0, w: 0}
  - {x: 0, y: 0, z: 0, w: 0}
  - {x: 0, y: 0, z: 0, w: 0}
  - {x: 0, y: 0, z: 0, w: 0}
  - {x: 0, y: 0, z: 0, w: 0}
  - {x: 0, y: 0, z: 0, w: 0}
  - {x: 0, y: 0, z: 0, w: 0}
  - {x: 0, y: 0, z: 0, w: 0}
  - {x: 0, y: 0, z: 0, w: 0}
  - {x: 0, y: 0, z: 0, w: 0}
  - {x: 0, y: 0, z: 0, w: 0}
  - {x: 0, y: 0, z: 0, w: 0}
  - {x: 0, y: 0, z: 0, w: 0}
  - {x: 0, y: 0, z: 0, w: 0}
  - {x: 0, y: 0, z: 0, w: 0}
  - {x: 0, y: 0, z: 0, w: 0}
  - {x: 0, y: 0, z: 0, w: 0}
  - {x: 0, y: 0, z: 0, w: 0}
  - {x: 0, y: 0, z: 0, w: 0}
  - {x: 0, y: 0, z: 0, w: 0}
  - {x: 0, y: 0, z: 0, w: 0}
  - {x: 0, y: 0, z: 0, w: 0}
  - {x: 0, y: 0, z: 0, w: 0}
  - {x: 0, y: 0, z: 0, w: 0}
  - {x: 0, y: 0, z: 0, w: 0}
  - {x: 0, y: 0, z: 0, w: 0}
  - {x: 0, y: 0, z: 0, w: 0}
  - {x: 0, y: 0, z: 0, w: 0}
  - {x: 0, y: 0, z: 0, w: 0}
  - {x: 0, y: 0, z: 0, w: 0}
  - {x: 0, y: 0, z: 0, w: 0}
  - {x: 0, y: 0, z: 0, w: 0}
  - {x: 0, y: 0, z: 0, w: 0}
  - {x: 0, y: 0, z: 0, w: 0}
  - {x: 0, y: 0, z: 0, w: 0}
  _uv4:
  - {x: 0, y: 0, z: 0, w: 0}
  - {x: 0, y: 0, z: 0, w: 0}
  - {x: 0, y: 0, z: 0, w: 0}
  - {x: 0, y: 0, z: 0, w: 0}
  - {x: 0, y: 0, z: 0, w: 0}
  - {x: 0, y: 0, z: 0, w: 0}
  - {x: 0, y: 0, z: 0, w: 0}
  - {x: 0, y: 0, z: 0, w: 0}
  - {x: 0, y: 0, z: 0, w: 0}
  - {x: 0, y: 0, z: 0, w: 0}
  - {x: 0, y: 0, z: 0, w: 0}
  - {x: 0, y: 0, z: 0, w: 0}
  - {x: 0, y: 0, z: 0, w: 0}
  - {x: 0, y: 0, z: 0, w: 0}
  - {x: 0, y: 0, z: 0, w: 0}
  - {x: 0, y: 0, z: 0, w: 0}
  - {x: 0, y: 0, z: 0, w: 0}
  - {x: 0, y: 0, z: 0, w: 0}
  - {x: 0, y: 0, z: 0, w: 0}
  - {x: 0, y: 0, z: 0, w: 0}
  - {x: 0, y: 0, z: 0, w: 0}
  - {x: 0, y: 0, z: 0, w: 0}
  - {x: 0, y: 0, z: 0, w: 0}
  - {x: 0, y: 0, z: 0, w: 0}
  - {x: 0, y: 0, z: 0, w: 0}
  - {x: 0, y: 0, z: 0, w: 0}
  - {x: 0, y: 0, z: 0, w: 0}
  - {x: 0, y: 0, z: 0, w: 0}
  - {x: 0, y: 0, z: 0, w: 0}
  - {x: 0, y: 0, z: 0, w: 0}
  - {x: 0, y: 0, z: 0, w: 0}
  - {x: 0, y: 0, z: 0, w: 0}
  - {x: 0, y: 0, z: 0, w: 0}
  - {x: 0, y: 0, z: 0, w: 0}
  - {x: 0, y: 0, z: 0, w: 0}
  - {x: 0, y: 0, z: 0, w: 0}
  - {x: 0, y: 0, z: 0, w: 0}
  - {x: 0, y: 0, z: 0, w: 0}
  - {x: 0, y: 0, z: 0, w: 0}
  - {x: 0, y: 0, z: 0, w: 0}
  - {x: 0, y: 0, z: 0, w: 0}
  - {x: 0, y: 0, z: 0, w: 0}
  - {x: 0, y: 0, z: 0, w: 0}
  - {x: 0, y: 0, z: 0, w: 0}
  - {x: 0, y: 0, z: 0, w: 0}
  - {x: 0, y: 0, z: 0, w: 0}
  - {x: 0, y: 0, z: 0, w: 0}
  - {x: 0, y: 0, z: 0, w: 0}
  - {x: 0, y: 0, z: 0, w: 0}
  - {x: 0, y: 0, z: 0, w: 0}
  - {x: 0, y: 0, z: 0, w: 0}
  - {x: 0, y: 0, z: 0, w: 0}
  - {x: 0, y: 0, z: 0, w: 0}
  - {x: 0, y: 0, z: 0, w: 0}
  - {x: 0, y: 0, z: 0, w: 0}
  - {x: 0, y: 0, z: 0, w: 0}
  - {x: 0, y: 0, z: 0, w: 0}
  - {x: 0, y: 0, z: 0, w: 0}
  - {x: 0, y: 0, z: 0, w: 0}
  - {x: 0, y: 0, z: 0, w: 0}
  _tangents: []
  _sharedIndicesUV:
  - array: 00000000
  - array: 01000000
  - array: 02000000
  - array: 0f000000
  - array: 10000000
  - array: 11000000
  - array: 12000000
  - array: 13000000
  - array: 14000000
  - array: 1e000000
  - array: 1f000000
  - array: 20000000
  - array: 2d000000
  - array: 2e000000
  - array: 2f000000
  - array: 30000000
  - array: 31000000
  - array: 32000000
  - array: 03000000
  - array: 04000000
  - array: 05000000
  - array: 06000000
  - array: 07000000
  - array: 08000000
  - array: 09000000
  - array: 0a000000
  - array: 0b000000
  - array: 18000000
  - array: 19000000
  - array: 1a000000
  - array: 1b000000
  - array: 1c000000
  - array: 1d000000
  - array: 27000000
  - array: 28000000
  - array: 29000000
  - array: 33000000
  - array: 34000000
  - array: 35000000
  - array: 36000000
  - array: 37000000
  - array: 38000000
  - array: 0c000000
  - array: 0d000000
  - array: 0e000000
  - array: 15000000
  - array: 16000000
  - array: 17000000
  - array: 21000000
  - array: 22000000
  - array: 23000000
  - array: 24000000
  - array: 25000000
  - array: 26000000
  - array: 2a000000
  - array: 2b000000
  - array: 2c000000
  - array: 39000000
  - array: 3a000000
  - array: 3b000000
  _colors:
  - {r: 1, g: 1, b: 1, a: 1}
  - {r: 1, g: 1, b: 1, a: 1}
  - {r: 1, g: 1, b: 1, a: 1}
  - {r: 1, g: 1, b: 1, a: 1}
  - {r: 1, g: 1, b: 1, a: 1}
  - {r: 1, g: 1, b: 1, a: 1}
  - {r: 1, g: 1, b: 1, a: 1}
  - {r: 1, g: 1, b: 1, a: 1}
  - {r: 1, g: 1, b: 1, a: 1}
  - {r: 1, g: 1, b: 1, a: 1}
  - {r: 1, g: 1, b: 1, a: 1}
  - {r: 1, g: 1, b: 1, a: 1}
  - {r: 1, g: 1, b: 1, a: 1}
  - {r: 1, g: 1, b: 1, a: 1}
  - {r: 1, g: 1, b: 1, a: 1}
  - {r: 1, g: 1, b: 1, a: 1}
  - {r: 1, g: 1, b: 1, a: 1}
  - {r: 1, g: 1, b: 1, a: 1}
  - {r: 1, g: 1, b: 1, a: 1}
  - {r: 1, g: 1, b: 1, a: 1}
  - {r: 1, g: 1, b: 1, a: 1}
  - {r: 1, g: 1, b: 1, a: 1}
  - {r: 1, g: 1, b: 1, a: 1}
  - {r: 1, g: 1, b: 1, a: 1}
  - {r: 1, g: 1, b: 1, a: 1}
  - {r: 1, g: 1, b: 1, a: 1}
  - {r: 1, g: 1, b: 1, a: 1}
  - {r: 1, g: 1, b: 1, a: 1}
  - {r: 1, g: 1, b: 1, a: 1}
  - {r: 1, g: 1, b: 1, a: 1}
  - {r: 1, g: 1, b: 1, a: 1}
  - {r: 1, g: 1, b: 1, a: 1}
  - {r: 1, g: 1, b: 1, a: 1}
  - {r: 1, g: 1, b: 1, a: 1}
  - {r: 1, g: 1, b: 1, a: 1}
  - {r: 1, g: 1, b: 1, a: 1}
  - {r: 1, g: 1, b: 1, a: 1}
  - {r: 1, g: 1, b: 1, a: 1}
  - {r: 1, g: 1, b: 1, a: 1}
  - {r: 1, g: 1, b: 1, a: 1}
  - {r: 1, g: 1, b: 1, a: 1}
  - {r: 1, g: 1, b: 1, a: 1}
  - {r: 1, g: 1, b: 1, a: 1}
  - {r: 1, g: 1, b: 1, a: 1}
  - {r: 1, g: 1, b: 1, a: 1}
  - {r: 1, g: 1, b: 1, a: 1}
  - {r: 1, g: 1, b: 1, a: 1}
  - {r: 1, g: 1, b: 1, a: 1}
  - {r: 1, g: 1, b: 1, a: 1}
  - {r: 1, g: 1, b: 1, a: 1}
  - {r: 1, g: 1, b: 1, a: 1}
  - {r: 1, g: 1, b: 1, a: 1}
  - {r: 1, g: 1, b: 1, a: 1}
  - {r: 1, g: 1, b: 1, a: 1}
  - {r: 1, g: 1, b: 1, a: 1}
  - {r: 1, g: 1, b: 1, a: 1}
  - {r: 1, g: 1, b: 1, a: 1}
  - {r: 1, g: 1, b: 1, a: 1}
  - {r: 1, g: 1, b: 1, a: 1}
  - {r: 1, g: 1, b: 1, a: 1}
  userCollisions: 0
  isSelectable: 1
  unwrapParameters:
    hardAngle: 88
    packMargin: 4
    angleError: 8
    areaError: 15
  asset_guid: 
  dontDestroyMeshOnDelete: 0
  m_selectedFaces: 
  m_SelectedEdges: []
  m_selectedTriangles: 
--- !u!114 &114930616941921148
MonoBehaviour:
  m_ObjectHideFlags: 1
  m_CorrespondingSourceObject: {fileID: 0}
  m_PrefabInternal: {fileID: 100100000}
  m_GameObject: {fileID: 1452218908364000}
  m_Enabled: 1
  m_EditorHideFlags: 0
  m_Script: {fileID: 16342205, guid: 0472bdc8d6d15384d98f22ee34302f9c, type: 3}
  m_Name: 
  m_EditorClassIdentifier: 
  _entityType: 0
