%YAML 1.1
%TAG !u! tag:unity3d.com,2011:
--- !u!114 &11400000
MonoBehaviour:
  m_ObjectHideFlags: 0
  m_CorrespondingSourceObject: {fileID: 0}
  m_PrefabInternal: {fileID: 0}
  m_GameObject: {fileID: 0}
  m_Enabled: 1
  m_EditorHideFlags: 0
  m_Script: {fileID: 11500000, guid: 2f5eed5eefb704e46b502f413422d888, type: 3}
  m_Name: Chest
  m_EditorClassIdentifier: 
  _name: Chest
  _graphics: {fileID: 1450146560325456, guid: 770420c2658e89646bdbea085cc084b7, type: 2}
