%YAML 1.1
%TAG !u! tag:unity3d.com,2011:
--- !u!114 &11400000
MonoBehaviour:
  m_ObjectHideFlags: 0
  m_CorrespondingSourceObject: {fileID: 0}
  m_PrefabInternal: {fileID: 0}
  m_GameObject: {fileID: 0}
  m_Enabled: 1
  m_EditorHideFlags: 0
  m_Script: {fileID: 11500000, guid: 2f5eed5eefb704e46b502f413422d888, type: 3}
  m_Name: Torus
  m_EditorClassIdentifier: 
  _name: Torus
  _graphics: {fileID: 1108648777713816, guid: 6c16dddc2abf4d843bcb8c5518f5b93d, type: 2}
