%YAML 1.1
%TAG !u! tag:unity3d.com,2011:
--- !u!114 &11400000
MonoBehaviour:
  m_ObjectHideFlags: 0
  m_CorrespondingSourceObject: {fileID: 0}
  m_PrefabInternal: {fileID: 0}
  m_GameObject: {fileID: 0}
  m_Enabled: 1
  m_EditorHideFlags: 0
  m_Script: {fileID: 11500000, guid: dc44036ab6299e04ab64e42f7e37e33d, type: 3}
  m_Name: LevelBlocks
  m_EditorClassIdentifier: 
  Blocks:
  - Name: Pattern
    Prefab: {fileID: 170002, guid: 73147f4ce68d0c0448d7ca58aa354015, type: 2}
  - Name: Auto
    Prefab: {fileID: 103644, guid: f7f399fd880144940be879c57d3f9bad, type: 2}
  - Name: Trigger
    Prefab: {fileID: 103644, guid: 6025d29e116e1034790176ac93e5dcc1, type: 2}
