%YAML 1.1
%TAG !u! tag:unity3d.com,2011:
--- !u!114 &11400000
MonoBehaviour:
  m_ObjectHideFlags: 0
  m_PrefabParentObject: {fileID: 0}
  m_PrefabInternal: {fileID: 0}
  m_GameObject: {fileID: 0}
  m_Enabled: 1
  m_EditorHideFlags: 0
  m_Script: {fileID: 11500000, guid: d34cf937f61801844a8bffd6b76f07a4, type: 3}
  m_Name: KnockBack
  m_EditorClassIdentifier: 
  m_KillPlayer: 0
  screenShake: 1
  knockBack: 1
  screenShakeData:
    normalShake: 1
    projectionShake: 0
    duration: 2
    speed: 20
    magnitude: 2
    damper:
      serializedVersion: 2
      m_Curve:
      - serializedVersion: 2
        time: 0
        value: 1
        inSlope: 0
        outSlope: 0
        tangentMode: 0
      - serializedVersion: 2
        time: 0.9
        value: 0.33
        inSlope: -2
        outSlope: -2
        tangentMode: 0
      - serializedVersion: 2
        time: 1
        value: 0
        inSlope: -5.65
        outSlope: -5.65
        tangentMode: 0
      m_PreInfinity: 2
      m_PostInfinity: 2
      m_RotationOrder: 4
